{
    "paths": [
        {
            "name": "/items",
            "lambdaFunction": "myapp01a81f67",
            "privacy": {
                "private": true,
                "auth": "rw"
            }
        }
    ],
    "resourceName": "apib5655a02",
    "apiName": "myappb5655a02",
    "functionArns": [
        {
            "lambdaFunction": "myapp01a81f67"
        }
    ],
    "privacy": {
        "auth": 1,
        "unauth": 0,
        "authRoleName": "myapp-20181018121609-authRole",
        "unAuthRoleName": "myapp-20181018121609-unauthRole"
    },
    "dependsOn": [
        {
            "category": "function",
            "resourceName": "myapp01a81f67",
            "attributes": [
                "Name",
                "Arn"
            ]
        }
    ]
}