{
    "projectName": "myapp",
    "projectPath": "/Users/Mauro/Development/Workspaces/jc/my-app",
    "defaultEditor": "code",
    "frontendHandler": {
        "javascript": "/Users/Mauro/.nvm/versions/node/v8.10.0/lib/node_modules/@aws-amplify/cli/node_modules/amplify-frontend-javascript"
    },
    "javascript": {
        "framework": "react",
        "config": {
            "SourceDir": "src",
            "DistributionDir": "build",
            "BuildCommand": "npm run-script build",
            "StartCommand": "npm run-script start"
        }
    },
    "providers": {
        "awscloudformation": "/Users/Mauro/.nvm/versions/node/v8.10.0/lib/node_modules/@aws-amplify/cli/node_modules/amplify-provider-awscloudformation"
    }
}