{
    "paths": [
        {
            "name": "/items",
            "lambdaFunction": "myappeb400bc3",
            "privacy": {
                "private": true,
                "auth": "rw"
            }
        }
    ],
    "resourceName": "testapimau2",
    "apiName": "myapp66dedf24",
    "functionArns": [
        {
            "lambdaFunction": "myappeb400bc3"
        }
    ],
    "privacy": {
        "auth": 1,
        "unauth": 0,
        "authRoleName": "myapp-20181018121609-authRole",
        "unAuthRoleName": "myapp-20181018121609-unauthRole"
    },
    "dependsOn": [
        {
            "category": "function",
            "resourceName": "myappeb400bc3",
            "attributes": [
                "Name",
                "Arn"
            ]
        }
    ]
}